INDEX VERSION 1.134+C:\Users\divyashree.sk\Documents\kafka_aggregate\.metadata\.plugins\org.eclipse.jdt.core
167262589.index
3346492659.index
796016924.index
895806608.index
1111927872.index
666200326.index
2139773903.index
1826604423.index
3634282954.index
3929892574.index
1005985001.index
2063309993.index
1403796642.index
3764564544.index
1090777883.index
1620765048.index
1048903713.index
539902419.index
2550221139.index
196286461.index
3147787319.index
2500059208.index
3725790560.index
94612311.index
4120555760.index
3946476483.index
816287250.index
1931411011.index
2156085064.index
3627828686.index
285198887.index
1391549934.index
1252065587.index
3749155540.index
3283741291.index
3088178276.index
646987157.index
4044366310.index
1840742529.index
891566427.index
303643845.index
3218107696.index
2056729771.index
2356690486.index
969793540.index
1096750443.index
631887009.index
753087975.index
1891746208.index
4051505356.index
916020166.index
2086771968.index
3029061285.index
4236716870.index
274189785.index
1037743069.index
1530104262.index
2764604741.index
2101153818.index
431569316.index
529030677.index
3557946023.index
4173330765.index
3945936443.index
605170675.index
3213964277.index
396968777.index
1532507730.index
2836658149.index
2442697489.index
2347797511.index
363213020.index
4006248081.index
226424936.index
704998426.index
221720253.index
4280355600.index
4038255132.index
280692214.index
3738316924.index
1213701047.index
3473933466.index
1131393730.index
1296263060.index
3878214605.index
2978873621.index
1562389026.index
3030666920.index
1905288502.index
2448495231.index
3010180537.index
1366024570.index
2393102830.index
429235337.index
3983625895.index
1015128187.index
3657096701.index
1539234394.index
2168209025.index
1865797976.index
444255407.index
1323989913.index
3828232368.index
1433888259.index
332711770.index
4281648867.index
326656864.index
1517226282.index
1558716156.index
4064373590.index
685110174.index
3147951157.index
2862216656.index
2929210573.index
1247125874.index
807562437.index
2945594659.index
4178825881.index
3743770301.index
1320586908.index
2039293555.index
3511095764.index
4019918379.index
558102951.index
1462001556.index
3142665133.index
2563708639.index
2401258141.index
375390071.index
3117638471.index
3358633173.index
43059855.index
560655736.index
2377892251.index
1410673699.index
2529154959.index
3791709226.index
